Introductory R for Social Sciences – Data Wrangling with Tidyverse
…
Task #2

Create a demographics-only dataset:

demographics_df <- wvs_data |>
    select(country, sex, age, marital_status, employment) |>
    write_csv("data-output/wvs_demographics.csv")

First few rows of the demographics data:

# A tibble: 6,403 × 5
  country sex      age marital_status             employment       
  <chr>   <chr>  <dbl> <chr>                      <chr>            
1 CAN     Female    76 Separated                  Retired/pensioned
2 CAN     Male      69 Married                    Retired/pensioned
3 CAN     Female    35 Living together as married Part time        
# ℹ 6,400 more rows

Task #3:

Filter for 30+ age group and sort by age:

wvs_30plus <- wvs_data |>
    filter(age >= 30) |>
    arrange(desc(age)) |>
    write_csv("data-output/wvs_30plus.csv")

Preview of the filtered data:

# A tibble: 5,319 × 3
  country   age employment       
  <chr>   <dbl> <chr>            
1 CAN        93 Part time        
2 NZL        91 Retired/pensioned
3 SGP        90 Retired/pensioned
# ℹ 5,316 more rows
…
Find all respondents who are: - From Singapore - Employed full-time - Have high life satisfaction (8 or higher) Save their country, employment, life_satisfaction, and freedom scores, arranged by life_satisfaction in descending order.

Show answer

singapore_satisfied <- wvs_data |>
    filter(country == "SGP" & 
           employment == "Full time" & 
           life_satisfaction >= 8) |>
    select(country, employment, life_satisfaction, freedom) |>
    arrange(desc(life_satisfaction))

Preview:

# A tibble: 361 × 4
  country employment life_satisfaction freedom
  <chr>   <chr>                  <dbl>   <dbl>
1 SGP     Full time                 10       1
2 SGP     Full time                 10      10
3 SGP     Full time                 10      10
# ℹ 358 more rows
…
Task #5

Add age groups to our dataset:

wvs_data <- wvs_data |>
    mutate(age_group = case_when(
        age < 30 ~ "18-29",
        age < 45 ~ "30-44",
        age < 60 ~ "45-59",
        TRUE ~ "60+"
    ))

Preview of age groups:

# A tibble: 6,403 × 2
    age age_group
  <dbl> <chr>    
1    76 60+      
2    69 60+      
3    35 30-44    
4    45 45-59    
# ℹ 6,399 more rows
…
Let’s create reverse-coded versions where 4 = highest importance:

wvs_data <- wvs_data |>
    mutate(
        # Reverse code each importance variable (5 minus original value)
        family_importance_r = 5 - family_importance,
        friends_importance_r = 5 - friends_importance,
        leisure_importance_r = 5 - leisure_importance,
        work_importance_r = 5 - work_importance
    )

Preview of original vs reverse-coded scales:

# A tibble: 6,403 × 8
  family_importance family_importance_r friends_importance friends_importance_r
              <dbl>               <dbl>              <dbl>                <dbl>
1                 1                   4                  1                    4
2                 1                   4                  1                    4
3                 2                   3                  2                    3
# ℹ 6,400 more rows
# ℹ 4 more variables: leisure_importance <dbl>, leisure_importance_r <dbl>,
#   work_importance <dbl>, work_importance_r <dbl>
…
generate satisfaction statistics by country and employment:

wvs_data |>
    group_by(country, employment) |>
    summarise(
        n = n(),
        mean_satisfaction = mean(life_satisfaction),
        median_satisfaction = median(life_satisfaction),
        sd_satisfaction = sd(life_satisfaction)
    ) |>
    arrange(country, desc(mean_satisfaction))

Task #9

# A tibble: 24 × 6
# Groups:   country [3]
   country employment                    n mean_satisfaction median_satisfaction
   <fct>   <fct>                     <int>             <dbl>               <dbl>
 1 CAN     Retired/pensioned           914              7.58                 8  
 2 CAN     Self employed               225              7.32                 8  
 3 CAN     Full time                  1808              7.10                 7  
 4 CAN     Homemaker not otherwise …   143              6.96                 7  
 5 CAN     Part time                   290              6.92                 7  
 6 CAN     Student                     320              6.53                 7  
 7 CAN     Other                        78              5.87                 6.5
 8 CAN     Unemployed                  240              5.53                 6  
 9 NZL     Self employed                 7              8.71                 9  
10 NZL     Retired/pensioned           179              8                    8  
# ℹ 14 more rows
# ℹ 1 more variable: sd_satisfaction <dbl>
…
Bonus: Deleting columns from dataframe

Let’s say I have this column called wrong_column that I want to remove:

wvs_data <- wvs_data |> mutate(wrong_column = "random values")
wvs_data |> select(country, wrong_column) |> print(n = 3)

# A tibble: 6,403 × 2
  country wrong_column 
  <fct>   <chr>        
1 CAN     random values
2 CAN     random values
3 CAN     random values
# ℹ 6,400 more rows

Remove the wrong column with subset -:

wvs_data <- wvs_data |> 
    select(-wrong_column)

# A tibble: 6,403 × 1
  country
  <fct>  
1 CAN    
2 CAN    
3 CAN    
# ℹ 6,400 more rows
…
