Introductory R for Social Sciences – Regression and Introduction to Quarto
…
The outcome/DV (\(Y\)): vote - there are 4 outcomes here, but for the purpose of this workshop practice, let’s define the outcome as “Yes” and “not Yes” outcome

The predictor/IV (\(X\)): age

Dummy-coding dependent variable

Before we proceed with the calculations, we need to dummy code the dependent variable into 1 and 0, with 1 = Yes and 0 = Not Yes. More info on dummy coding here

# First, we need to create a binary outcome
wvs_data <- wvs_data |>
    mutate(satisfied = if_else(life_satisfaction > 6, 1, 0))
# the if_else is from dplyr package (from session 2)

# A tibble: 6,403 × 2
  life_satisfaction satisfied
              <dbl>     <dbl>
1                 5         0
2                 8         1
3                 9         1
4                 7         1
5                 1         0
# ℹ 6,398 more rows
…
